<svg xmlns="http://www.w3.org/2000/svg" xmlns:xlink="http://www.w3.org/1999/xlink" version="1.1" id="Layer_1" x="0px" y="0px" width="105px" height="24px" viewBox="0 0 105 24" enable-background="new 0 0 105 24" xml:space="preserve">
<g>
	<path fill="#FDB913" d="M42.264,7.41c-0.09-0.594-0.52-0.945-1.15-0.945h-0.7c-0.55,0-0.919,0.241-1.128,0.736l-1.963,4.948   l-1.96-4.941c-0.21-0.501-0.579-0.743-1.13-0.743h-0.699c-0.631,0-1.061,0.352-1.15,0.939l-1.234,9.185   c-0.018,0.114-0.018,0.195-0.018,0.244c0,0.558,0.43,0.963,1.021,0.963h0.459c0.574,0,0.998-0.356,1.078-0.912l0.709-5.322   l1.613,4.124c0.092,0.244,0.356,0.67,1.088,0.67h0.446c0.732,0,0.997-0.426,1.089-0.679l1.613-4.116l0.707,5.319   c0.084,0.56,0.507,0.916,1.078,0.916h0.461c0.592,0,1.021-0.405,1.021-0.963c0-0.049,0-0.13-0.019-0.244L42.264,7.41z"/>
	<path fill="#FDB913" d="M50.076,6.258c-1.777,0-3.264,0.61-4.297,1.764c-0.936,1.045-1.449,2.502-1.449,4.101   c0,1.584,0.514,3.034,1.449,4.085c1.037,1.166,2.523,1.783,4.297,1.783c1.786,0,3.275-0.617,4.311-1.784   c0.928-1.046,1.438-2.496,1.438-4.084c0-1.604-0.513-3.059-1.438-4.1C53.355,6.868,51.867,6.258,50.076,6.258z M50.076,15.723   c-1.867,0-3.123-1.447-3.123-3.601c0-2.134,1.256-3.568,3.123-3.568c1.898,0,3.125,1.4,3.125,3.568   C53.201,14.311,51.975,15.723,50.076,15.723z"/>
	<path fill="#FDB913" d="M63.93,15.499h-4.227l4.961-7.128c0.159-0.234,0.229-0.433,0.229-0.646c0-0.097-0.02-0.293-0.146-0.526   l-0.104-0.19l-0.006-0.01L64.631,6.99c-0.288-0.464-0.669-0.524-0.969-0.524h-5.959c-0.604,0-1.006,0.394-1.006,0.979v0.341   c0,0.594,0.395,0.978,1.006,0.978h3.664l-4.949,7.126c-0.158,0.235-0.227,0.437-0.227,0.647c0,0.095,0.018,0.289,0.146,0.522   l0.104,0.192l0.006,0.011l0.004,0.008c0.289,0.465,0.67,0.523,0.97,0.523h6.509c0.611,0,1.006-0.384,1.006-0.977v-0.342   C64.936,15.893,64.531,15.499,63.93,15.499z"/>
	<path fill="#FDB913" d="M73.486,15.499H69.26l4.963-7.128c0.157-0.236,0.229-0.434,0.229-0.646c0-0.097-0.021-0.293-0.148-0.526   L74.2,7.009L74.193,7l-0.006-0.01c-0.285-0.465-0.668-0.525-0.97-0.525h-5.956c-0.604,0-1.009,0.394-1.009,0.979v0.341   c0,0.594,0.396,0.978,1.009,0.978h3.661l-4.948,7.127c-0.158,0.233-0.228,0.434-0.228,0.646c0,0.095,0.021,0.29,0.146,0.523   l0.104,0.191l0.006,0.01l0.006,0.01c0.287,0.463,0.668,0.522,0.968,0.522h6.51c0.611,0,1.008-0.384,1.008-0.978v-0.342   C74.493,15.893,74.088,15.499,73.486,15.499z"/>
	<path fill="#FDB913" d="M85.145,16.477l-0.004-0.008l-3.58-9.287c-0.192-0.471-0.574-0.717-1.104-0.717h-0.534   c-0.67,0-0.968,0.387-1.101,0.711l-3.583,9.293l-0.003,0.01l-0.004,0.011l-0.004,0.01c-0.031,0.103-0.072,0.228-0.072,0.396   c0,0.539,0.387,0.901,0.963,0.901h0.549c0.516,0,0.855-0.239,1.043-0.733l0.671-1.748h3.603l0.687,1.752   c0.188,0.492,0.53,0.729,1.044,0.729h0.551c0.574,0,0.963-0.362,0.963-0.901c0-0.182-0.045-0.313-0.078-0.412L85.145,16.477z    M79.279,13.018l0.91-2.333l0.91,2.333H79.279z"/>
	<path fill="#FDB913" d="M92.686,13.624l-0.004-0.005l-0.002-0.006c-0.029-0.04-0.061-0.082-0.094-0.127   c1.262-0.663,2-1.869,2-3.313c0-2.463-1.568-3.711-4.662-3.711h-2.422c-0.664,0-1.127,0.457-1.127,1.111v9.228   c0,0.584,0.42,0.992,1.021,0.992h0.521c0.603,0,1.021-0.408,1.021-0.992v-2.797h0.959c0.133,0.122,0.272,0.3,0.477,0.587   l1.732,2.656c0.233,0.361,0.58,0.546,1.024,0.546h0.521c0.565,0,0.979-0.386,0.979-0.918c0-0.181-0.084-0.409-0.223-0.612   L92.686,13.624z M90.279,11.725h-1.34V8.762h0.924c2.129,0,2.129,1.02,2.129,1.354C91.992,11.608,90.682,11.725,90.279,11.725z"/>
	<path fill="#FDB913" d="M103.283,6.465h-7.221c-0.601,0-1.066,0.436-1.066,0.992V7.77c0,0.547,0.479,0.992,1.066,0.992h2.319v8.042   c0,0.584,0.423,0.99,1.021,0.99h0.521c0.604,0,1.021-0.406,1.021-0.99V8.762h2.337c0.608,0,1.065-0.427,1.065-0.992V7.457   C104.35,6.892,103.893,6.465,103.283,6.465z"/>
	<path fill="#FDB913" d="M14.141,7.441c-0.17,0.426-1.834,4.608-1.834,4.608s-1.662-4.183-1.832-4.608   C10.245,6.872,9.688,6.47,9.037,6.47c-0.762,0-1.395,0.551-1.525,1.276c-0.088,0.656-1.174,8.48-1.173,8.79   c0,0.714,0.579,1.291,1.292,1.291c0.637,0,1.184-0.486,1.271-1.068c0.09-0.581,0.641-4.817,0.641-4.817s1.473,3.756,1.575,4.018   c0.171,0.437,0.655,0.787,1.188,0.787c0.535,0,1.02-0.351,1.189-0.787c0.104-0.262,1.574-4.018,1.574-4.018   s0.553,4.236,0.643,4.817c0.088,0.582,0.633,1.068,1.271,1.068c0.713,0,1.291-0.577,1.291-1.291c0.002-0.31-1.084-8.134-1.173-8.79   c-0.13-0.726-0.763-1.276-1.524-1.276C14.926,6.47,14.369,6.872,14.141,7.441z"/>
	<path fill="#FDB913" d="M13.496,15.959l0.033-0.081C13.512,15.921,13.496,15.959,13.496,15.959z"/>
	<path fill="#FDB913" d="M11.118,15.959l-0.032-0.081C11.102,15.921,11.118,15.959,11.118,15.959z"/>
	<path fill="#FDB913" d="M22.244,8.098c-0.714,0-1.293,0.579-1.293,1.293c0,0.146,0.026,0.286,0.07,0.418   c0.234,0.806,0.363,1.655,0.363,2.535c0,5.014-4.064,9.076-9.078,9.076c-5.012,0-9.076-4.063-9.076-9.076   c0-5.013,4.064-9.077,9.076-9.077c0.885,0,1.737,0.128,2.545,0.364V3.63c0.115,0.034,0.237,0.054,0.363,0.054   c0.714,0,1.293-0.579,1.293-1.293c0-0.63-0.451-1.153-1.049-1.269c-1.003-0.281-2.059-0.437-3.152-0.437   c-6.438,0-11.656,5.22-11.656,11.658C0.65,18.781,5.869,24,12.307,24c6.439,0,11.658-5.218,11.658-11.656   c0-1.144-0.168-2.247-0.475-3.29C23.342,8.503,22.841,8.098,22.244,8.098z"/>
	<path fill="#FDB913" d="M23.109,3.784c-0.115-0.114-0.115-0.3,0-0.414l1.162-1.163c0.506-0.506,0.504-1.324,0-1.828   s-1.322-0.505-1.826-0.001l-1.164,1.163c-0.114,0.115-0.3,0.115-0.414,0.001l-1.164-1.164c-0.504-0.504-1.322-0.504-1.826,0   c-0.506,0.505-0.506,1.323,0,1.828l1.162,1.163c0.114,0.114,0.114,0.3,0,0.415l-1.162,1.163c-0.506,0.504-0.504,1.322,0,1.826   c0.504,0.505,1.322,0.506,1.826,0.001l1.164-1.163c0.113-0.114,0.3-0.114,0.414,0l1.164,1.163c0.504,0.505,1.322,0.505,1.826,0   c0.505-0.504,0.505-1.322,0-1.827L23.109,3.784z"/>
</g>
</svg>
