<svg width="22" height="22" viewBox="0 0 22 22" fill="none" xmlns="http://www.w3.org/2000/svg">
<g clip-path="url(#clip0)">
<path d="M0.688583 13.0635L9.39697 13.0635C9.77647 13.0635 10.0845 12.7555 10.0845 12.376C10.0845 11.9965 9.77647 11.6885 9.39697 11.6885L0.688583 11.6885C0.309082 11.6885 0.0010834 11.9965 0.00108343 12.376C0.00108347 12.7555 0.309082 13.0635 0.688583 13.0635Z" fill="#0E1C42"/>
<path d="M4.12566 16.5007C4.30173 16.5007 4.47763 16.4337 4.61157 16.2991C4.88013 16.0304 4.88013 15.595 4.61157 15.3264L1.65982 12.3748L4.61157 9.42409C4.88013 9.15536 4.88013 8.71997 4.61157 8.45142C4.34302 8.18286 3.90762 8.18286 3.6389 8.45142L0.201401 11.8889C-0.0671536 12.1575 -0.0671536 12.5929 0.201401 12.8616L3.6389 16.2991C3.77368 16.4337 3.94975 16.5007 4.12566 16.5007Z" fill="#0E1C42"/>
<path d="M14.6667 -0.00034523C13.6556 -0.00034523 12.8335 0.821936 12.8335 1.83304V18.333C12.8335 19.1167 13.3322 19.8161 14.0746 20.0738L19.5819 21.9099C20.8139 22.2875 22.0001 21.3736 22.0001 20.1663V3.66627C22.0001 2.88343 21.5014 2.18502 20.7599 1.92653L15.2507 0.0894527C15.0499 0.0271816 14.8639 -0.00034523 14.6667 -0.00034523ZM20.1667 20.6247C20.1071 20.6247 20.0568 20.6173 20.0027 20.6008L14.5183 18.7721C14.3386 18.7097 14.2085 18.5282 14.2085 18.333V1.83304C14.2085 1.52035 14.5475 1.30953 14.8309 1.39849L20.3153 3.22718C20.494 3.28962 20.6251 3.47106 20.6251 3.66627V20.1663C20.6251 20.4184 20.4198 20.6247 20.1667 20.6247Z" fill="#0E1C42"/>
<path d="M8.021 17.4166C7.64149 17.4166 7.3335 17.7246 7.3335 18.1041V19.4791C7.3335 20.8697 8.46361 22 9.85422 22H20.1667C20.5462 22 20.8542 21.692 20.8542 21.3125C20.8542 20.933 20.5462 20.625 20.1667 20.625H9.85422C9.22261 20.625 8.7085 20.1107 8.7085 19.4791V18.1041C8.7085 17.7246 8.4005 17.4166 8.021 17.4166Z" fill="#0E1C42"/>
<path d="M13.521 2.7506H9.85422C8.46361 2.7506 7.3335 3.88087 7.3335 5.27148V6.64648C7.3335 7.02599 7.64149 7.33398 8.021 7.33398C8.4005 7.33398 8.7085 7.02599 8.7085 6.64648V5.27148C8.7085 4.63988 9.22261 4.1256 9.85422 4.1256H13.521C13.9005 4.1256 14.2085 3.8176 14.2085 3.4381C14.2085 3.05859 13.9005 2.7506 13.521 2.7506Z" fill="#0E1C42"/>
</g>
<defs>
<clipPath id="clip0">
<rect width="22" height="22" transform="matrix(1 0 0 -1 0 22)" fill="white"/>
</clipPath>
</defs>
</svg>
